{
  "project_info": {
    "project_number": "96184855728",
    "project_id": "infinite-health-care",
    "storage_bucket": "infinite-health-care.appspot.com"
  },
  "client": [
    {
      "client_info": {
        "mobilesdk_app_id": "1:96184855728:android:91b1d3a197b20c34859f75",
        "android_client_info": {
          "package_name": "com.usha.ihcdoctor"
        }
      },
      "oauth_client": [
        {
          "client_id": "96184855728-vqa76mn07f1ghv79iafeeavnoaejob80.apps.googleusercontent.com",
          "client_type": 1,
          "android_info": {
            "package_name": "com.usha.ihcdoctor",
            "certificate_hash": "b2060aefc03dfcbe56d63adb3cb75ddda5c6cc55"
          }
        },
        {
          "client_id": "96184855728-a0h69ns332qrq3csip3nsvevjurphrol.apps.googleusercontent.com",
          "client_type": 3
        }
      ],
      "api_key": [
        {
          "current_key": "AIzaSyCgQ8hhsW4VR9MsIUzkYm-k_nPLNuVlQGE"
        }
      ],
      "services": {
        "appinvite_service": {
          "other_platform_oauth_client": [
            {
              "client_id": "96184855728-a0h69ns332qrq3csip3nsvevjurphrol.apps.googleusercontent.com",
              "client_type": 3
            }
          ]
        }
      }
    },
    {
      "client_info": {
        "mobilesdk_app_id": "1:96184855728:android:eeeb1a8bd466b944859f75",
        "android_client_info": {
          "package_name": "com.usha.ihcpatient"
        }
      },
      "oauth_client": [
        {
          "client_id": "96184855728-e7oehvoqvs5igashj3k08qu91veauh97.apps.googleusercontent.com",
          "client_type": 1,
          "android_info": {
            "package_name": "com.usha.ihcpatient",
            "certificate_hash": "b2060aefc03dfcbe56d63adb3cb75ddda5c6cc55"
          }
        },
        {
          "client_id": "96184855728-a0h69ns332qrq3csip3nsvevjurphrol.apps.googleusercontent.com",
          "client_type": 3
        }
      ],
      "api_key": [
        {
          "current_key": "AIzaSyCgQ8hhsW4VR9MsIUzkYm-k_nPLNuVlQGE"
        }
      ],
      "services": {
        "appinvite_service": {
          "other_platform_oauth_client": [
            {
              "client_id": "96184855728-a0h69ns332qrq3csip3nsvevjurphrol.apps.googleusercontent.com",
              "client_type": 3
            }
          ]
        }
      }
    }
  ],
  "configuration_version": "1"
}